<?xml version="1.0" encoding="UTF-8" standalone="no"?>
<!DOCTYPE svg PUBLIC "-//W3C//DTD SVG 1.1//EN"
 "http://www.w3.org/Graphics/SVG/1.1/DTD/svg11.dtd">
<!-- Generated by graphviz version 2.40.1 (20161225.0304)
 -->
<!-- Title: Guideline Pages: 1 -->
<svg width="3732pt" height="1394pt"
 viewBox="0.00 0.00 3732.08 1394.00" xmlns="http://www.w3.org/2000/svg" xmlns:xlink="http://www.w3.org/1999/xlink">
<g id="graph0" class="graph" transform="scale(1 1) rotate(0) translate(4 1390)">
<title>Guideline</title>
<polygon fill="#ffffff" stroke="transparent" points="-4,4 -4,-1390 3728.0824,-1390 3728.0824,4 -4,4"/>
<!-- 0 -->
<g id="node1" class="node">
<title>0</title>
<polygon fill="none" stroke="#000000" points="3063.8379,-1386 3003.8379,-1386 3003.8379,-1350 3063.8379,-1350 3063.8379,-1386"/>
<text text-anchor="middle" x="3033.8379" y="-1364.3" font-family="Times,serif" font-size="14.00" fill="#000000">patient1</text>
</g>
<!-- 1 -->
<g id="node2" class="node">
<title>1</title>
<ellipse fill="none" stroke="#000000" cx="3033.8379" cy="-1281" rx="161.6714" ry="18"/>
<text text-anchor="middle" x="3033.8379" y="-1277.3" font-family="Times,serif" font-size="14.00" fill="#000000">Recommend diagnose acute schizophrenia</text>
</g>
<!-- 0&#45;&gt;1 -->
<g id="edge1" class="edge">
<title>0&#45;&gt;1</title>
<path fill="none" stroke="#000000" d="M3033.8379,-1349.9735C3033.8379,-1338.1918 3033.8379,-1322.5607 3033.8379,-1309.1581"/>
<polygon fill="#000000" stroke="#000000" points="3037.338,-1309.0033 3033.8379,-1299.0034 3030.338,-1309.0034 3037.338,-1309.0033"/>
<text text-anchor="middle" x="3097.8379" y="-1320.8" font-family="Times,serif" font-size="14.00" fill="#000000">Next recommendations</text>
</g>
<!-- 2 -->
<g id="node3" class="node">
<title>2</title>
<ellipse fill="none" stroke="#000000" cx="2376.8379" cy="-1208" rx="77.1866" ry="18"/>
<text text-anchor="middle" x="2376.8379" y="-1204.3" font-family="Times,serif" font-size="14.00" fill="#000000">Diabetes screening</text>
</g>
<!-- 1&#45;&gt;2 -->
<g id="edge2" class="edge">
<title>1&#45;&gt;2</title>
<path fill="none" stroke="#000000" d="M2901.6776,-1270.5573C2789.4479,-1261.0433 2624.2371,-1245.5146 2480.8379,-1226 2470.0645,-1224.5339 2458.6981,-1222.7804 2447.5924,-1220.9515"/>
<polygon fill="#000000" stroke="#000000" points="2447.9323,-1217.4597 2437.491,-1219.2568 2446.7741,-1224.3632 2447.9323,-1217.4597"/>
</g>
<!-- 3 -->
<g id="node4" class="node">
<title>3</title>
<ellipse fill="none" stroke="#000000" cx="2626.8379" cy="-1208" rx="137.2758" ry="18"/>
<text text-anchor="middle" x="2626.8379" y="-1204.3" font-family="Times,serif" font-size="14.00" fill="#000000">Check previous pathological results</text>
</g>
<!-- 1&#45;&gt;3 -->
<g id="edge3" class="edge">
<title>1&#45;&gt;3</title>
<path fill="none" stroke="#000000" d="M2948.5174,-1265.6968C2880.9777,-1253.5828 2786.8598,-1236.7017 2717.8763,-1224.3287"/>
<polygon fill="#000000" stroke="#000000" points="2718.3478,-1220.8575 2707.8869,-1222.537 2717.1119,-1227.7476 2718.3478,-1220.8575"/>
</g>
<!-- 4 -->
<g id="node5" class="node">
<title>4</title>
<ellipse fill="none" stroke="#000000" cx="3168.8379" cy="-425" rx="200.3646" ry="18"/>
<text text-anchor="middle" x="3168.8379" y="-421.3" font-family="Times,serif" font-size="14.00" fill="#000000">Check and documentate psychpathological indication</text>
</g>
<!-- 1&#45;&gt;4 -->
<g id="edge4" class="edge">
<title>1&#45;&gt;4</title>
<path fill="none" stroke="#000000" d="M3050.3384,-1262.9661C3061.3569,-1249.0219 3073.8379,-1228.6656 3073.8379,-1208 3073.8379,-1208 3073.8379,-1208 3073.8379,-512 3073.8379,-483.9395 3096.6586,-462.4861 3119.9302,-447.9039"/>
<polygon fill="#000000" stroke="#000000" points="3121.9933,-450.7504 3128.8247,-442.6521 3118.4342,-444.7227 3121.9933,-450.7504"/>
</g>
<!-- 5 -->
<g id="node6" class="node">
<title>5</title>
<ellipse fill="none" stroke="#000000" cx="2913.8379" cy="-1208" rx="131.8766" ry="18"/>
<text text-anchor="middle" x="2913.8379" y="-1204.3" font-family="Times,serif" font-size="14.00" fill="#000000">Informate about pharmacotherapy</text>
</g>
<!-- 1&#45;&gt;5 -->
<g id="edge5" class="edge">
<title>1&#45;&gt;5</title>
<path fill="none" stroke="#000000" d="M3004.4826,-1263.1422C2988.5292,-1253.4372 2968.6246,-1241.3286 2951.5347,-1230.9322"/>
<polygon fill="#000000" stroke="#000000" points="2953.2526,-1227.8805 2942.8902,-1225.6734 2949.6145,-1233.8609 2953.2526,-1227.8805"/>
</g>
<!-- 7 -->
<g id="node7" class="node">
<title>7</title>
<ellipse fill="none" stroke="#000000" cx="3190.8379" cy="-1208" rx="89.0842" ry="18"/>
<text text-anchor="middle" x="3190.8379" y="-1204.3" font-family="Times,serif" font-size="14.00" fill="#000000">Check risk for suicide</text>
</g>
<!-- 1&#45;&gt;7 -->
<g id="edge6" class="edge">
<title>1&#45;&gt;7</title>
<path fill="none" stroke="#000000" d="M3071.8433,-1263.3287C3094.1766,-1252.9445 3122.5317,-1239.7602 3145.9602,-1228.8667"/>
<polygon fill="#000000" stroke="#000000" points="3147.7428,-1231.8978 3155.3348,-1224.5078 3144.7914,-1225.5504 3147.7428,-1231.8978"/>
</g>
<!-- 6 -->
<g id="node8" class="node">
<title>6</title>
<polygon fill="#a3c1ad" stroke="#a3c1ad" points="3510.8379,-1226 3297.3487,-1208 3510.8379,-1190 3724.3272,-1208 3510.8379,-1226"/>
<text text-anchor="middle" x="3510.8379" y="-1204.3" font-family="Times,serif" font-size="14.00" fill="#000000">Condition: Has a persistent depression?</text>
</g>
<!-- 1&#45;&gt;6 -->
<g id="edge7" class="edge">
<title>1&#45;&gt;6</title>
<path fill="none" stroke="#000000" d="M3129.2196,-1266.4028C3215.5648,-1253.1886 3341.624,-1233.8965 3424.9062,-1221.151"/>
<polygon fill="#000000" stroke="#000000" points="3425.4896,-1224.6025 3434.845,-1219.63 3424.4305,-1217.6831 3425.4896,-1224.6025"/>
</g>
<!-- 2&#45;&gt;2 -->
<g id="edge8" class="edge">
<title>2&#45;&gt;2</title>
<path fill="none" stroke="#000000" d="M2449.1778,-1214.4035C2462.6753,-1213.615 2472.1811,-1211.4805 2472.1811,-1208 2472.1811,-1205.4712 2467.163,-1203.653 2459.2419,-1202.5452"/>
<polygon fill="#000000" stroke="#000000" points="2459.4622,-1199.0506 2449.1778,-1201.5965 2458.8051,-1206.0197 2459.4622,-1199.0506"/>
</g>
<!-- 8 -->
<g id="node9" class="node">
<title>8</title>
<ellipse fill="none" stroke="#000000" cx="2465.8379" cy="-1121" rx="133.4768" ry="18"/>
<text text-anchor="middle" x="2465.8379" y="-1117.3" font-family="Times,serif" font-size="14.00" fill="#000000">Get approval for pharmacotherapy</text>
</g>
<!-- 5&#45;&gt;8 -->
<g id="edge9" class="edge">
<title>5&#45;&gt;8</title>
<path fill="none" stroke="#000000" d="M2837.8409,-1193.2416C2758.6772,-1177.8683 2634.8741,-1153.8262 2552.0939,-1137.7506"/>
<polygon fill="#000000" stroke="#000000" points="2552.6917,-1134.3014 2542.2079,-1135.8308 2551.3572,-1141.173 2552.6917,-1134.3014"/>
</g>
<!-- 9 -->
<g id="node11" class="node">
<title>9</title>
<ellipse fill="none" stroke="#000000" cx="3510.8379" cy="-1121" rx="108.5808" ry="18"/>
<text text-anchor="middle" x="3510.8379" y="-1117.3" font-family="Times,serif" font-size="14.00" fill="#000000">Start antidepressive therapy</text>
</g>
<!-- 6&#45;&gt;9 -->
<g id="edge31" class="edge">
<title>6&#45;&gt;9</title>
<path fill="none" stroke="#000000" d="M3510.8379,-1189.9735C3510.8379,-1178.1918 3510.8379,-1162.5607 3510.8379,-1149.1581"/>
<polygon fill="#000000" stroke="#000000" points="3514.338,-1149.0033 3510.8379,-1139.0034 3507.338,-1149.0034 3514.338,-1149.0033"/>
<text text-anchor="middle" x="3535.3379" y="-1160.8" font-family="Times,serif" font-size="14.00" fill="#000000">nextTrue</text>
</g>
<!-- 10 -->
<g id="node10" class="node">
<title>10</title>
<ellipse fill="none" stroke="#000000" cx="1190.8379" cy="-1048" rx="172.7694" ry="18"/>
<text text-anchor="middle" x="1190.8379" y="-1044.3" font-family="Times,serif" font-size="14.00" fill="#000000">Recommendation: Start antipsychotic therapy</text>
</g>
<!-- 8&#45;&gt;10 -->
<g id="edge10" class="edge">
<title>8&#45;&gt;10</title>
<path fill="none" stroke="#000000" d="M2343.0069,-1113.9673C2111.5851,-1100.7173 1611.0678,-1072.0602 1352.5957,-1057.2614"/>
<polygon fill="#000000" stroke="#000000" points="1352.5509,-1053.7532 1342.3672,-1056.6758 1352.1507,-1060.7418 1352.5509,-1053.7532"/>
</g>
<!-- 13 -->
<g id="node12" class="node">
<title>13</title>
<ellipse fill="none" stroke="#000000" cx="779.8379" cy="-975" rx="211.7625" ry="18"/>
<text text-anchor="middle" x="779.8379" y="-971.3" font-family="Times,serif" font-size="14.00" fill="#000000">Liver enzymes test at beginning of antipsychotic therapy</text>
</g>
<!-- 10&#45;&gt;13 -->
<g id="edge11" class="edge">
<title>10&#45;&gt;13</title>
<path fill="none" stroke="#000000" d="M1103.1723,-1032.4292C1038.1206,-1020.875 949.2756,-1005.0948 881.1765,-992.9993"/>
<polygon fill="#000000" stroke="#000000" points="881.7429,-989.5452 871.2849,-991.2424 880.5187,-996.4373 881.7429,-989.5452"/>
</g>
<!-- 14 -->
<g id="node13" class="node">
<title>14</title>
<ellipse fill="none" stroke="#000000" cx="135.8379" cy="-921" rx="135.6761" ry="18"/>
<text text-anchor="middle" x="135.8379" y="-917.3" font-family="Times,serif" font-size="14.00" fill="#000000">Bloodcount scheduled at beginning</text>
</g>
<!-- 10&#45;&gt;14 -->
<g id="edge12" class="edge">
<title>10&#45;&gt;14</title>
<path fill="none" stroke="#000000" d="M1020.8393,-1044.5977C733.2492,-1038.0662 178.6422,-1021.8026 146.8379,-993 134.8818,-982.1723 132.1097,-964.2581 132.3377,-949.0082"/>
<polygon fill="#000000" stroke="#000000" points="135.8336,-949.1762 132.8987,-938.996 128.8446,-948.7845 135.8336,-949.1762"/>
</g>
<!-- 15 -->
<g id="node14" class="node">
<title>15</title>
<ellipse fill="none" stroke="#000000" cx="1699.8379" cy="-975" rx="58.4896" ry="18"/>
<text text-anchor="middle" x="1699.8379" y="-971.3" font-family="Times,serif" font-size="14.00" fill="#000000">Monotherapy</text>
</g>
<!-- 10&#45;&gt;15 -->
<g id="edge13" class="edge">
<title>10&#45;&gt;15</title>
<path fill="none" stroke="#000000" d="M1323.1117,-1036.38C1411.3337,-1027.4455 1529.6272,-1013.1845 1632.8379,-993 1637.5403,-992.0804 1642.3991,-991.0119 1647.2521,-989.8631"/>
<polygon fill="#000000" stroke="#000000" points="1648.2867,-993.2127 1657.1537,-987.4139 1646.6059,-986.4175 1648.2867,-993.2127"/>
</g>
<!-- 11 -->
<g id="node15" class="node">
<title>11</title>
<polygon fill="#a3c1ad" stroke="#a3c1ad" points="352.8379,-993 155.9384,-975 352.8379,-957 549.7375,-975 352.8379,-993"/>
<text text-anchor="middle" x="352.8379" y="-971.3" font-family="Times,serif" font-size="14.00" fill="#000000">Condition: Has an initial dyskensia?</text>
</g>
<!-- 10&#45;&gt;11 -->
<g id="edge14" class="edge">
<title>10&#45;&gt;11</title>
<path fill="none" stroke="#000000" d="M1057.9822,-1036.4518C930.0916,-1025.332 731.2364,-1008.0335 558.8379,-993 528.0715,-990.3171 494.7206,-987.4047 463.9965,-984.7201"/>
<polygon fill="#000000" stroke="#000000" points="463.952,-981.2029 453.6853,-983.819 463.3426,-988.1764 463.952,-981.2029"/>
</g>
<!-- 12 -->
<g id="node16" class="node">
<title>12</title>
<polygon fill="#a3c1ad" stroke="#a3c1ad" points="1316.8379,-993 1009.8409,-975 1316.8379,-957 1623.835,-975 1316.8379,-993"/>
<text text-anchor="middle" x="1316.8379" y="-971.3" font-family="Times,serif" font-size="14.00" fill="#000000">Condition: Is first manifestation of an acute schizophrenia</text>
</g>
<!-- 10&#45;&gt;12 -->
<g id="edge15" class="edge">
<title>10&#45;&gt;12</title>
<path fill="none" stroke="#000000" d="M1221.661,-1030.1422C1239.1919,-1019.9854 1261.2668,-1007.196 1279.7424,-996.4919"/>
<polygon fill="#000000" stroke="#000000" points="1281.5894,-999.4668 1288.4875,-991.4253 1278.0802,-993.4099 1281.5894,-999.4668"/>
</g>
<!-- 19 -->
<g id="node17" class="node">
<title>19</title>
<ellipse fill="none" stroke="#000000" cx="733.8379" cy="-867" rx="175.4689" ry="18"/>
<text text-anchor="middle" x="733.8379" y="-863.3" font-family="Times,serif" font-size="14.00" fill="#000000">Liver enzymes test scheduled after four weeks</text>
</g>
<!-- 13&#45;&gt;19 -->
<g id="edge16" class="edge">
<title>13&#45;&gt;19</title>
<path fill="none" stroke="#000000" d="M772.0347,-956.6793C764.7546,-939.5868 753.7977,-913.8619 745.4833,-894.3413"/>
<polygon fill="#000000" stroke="#000000" points="748.6647,-892.8789 741.526,-885.0502 742.2246,-895.6219 748.6647,-892.8789"/>
</g>
<!-- 20 -->
<g id="node18" class="node">
<title>20</title>
<ellipse fill="none" stroke="#000000" cx="305.8379" cy="-813" rx="149.4735" ry="18"/>
<text text-anchor="middle" x="305.8379" y="-809.3" font-family="Times,serif" font-size="14.00" fill="#000000">Bloodcount scheduled after four weeks</text>
</g>
<!-- 14&#45;&gt;20 -->
<g id="edge17" class="edge">
<title>14&#45;&gt;20</title>
<path fill="none" stroke="#000000" d="M141.3567,-902.9406C147.2912,-886.5165 158.3106,-862.7986 175.8379,-849 183.7841,-842.7443 201.1652,-836.6121 220.7106,-831.2321"/>
<polygon fill="#000000" stroke="#000000" points="221.6765,-834.597 230.4477,-828.6541 219.8849,-827.8301 221.6765,-834.597"/>
</g>
<!-- 16 -->
<g id="node19" class="node">
<title>16</title>
<ellipse fill="none" stroke="#000000" cx="352.8379" cy="-867" rx="167.8704" ry="18"/>
<text text-anchor="middle" x="352.8379" y="-863.3" font-family="Times,serif" font-size="14.00" fill="#000000">Recommendation: Apply anticholinergikum</text>
</g>
<!-- 11&#45;&gt;16 -->
<g id="edge32" class="edge">
<title>11&#45;&gt;16</title>
<path fill="none" stroke="#000000" d="M352.8379,-956.6793C352.8379,-939.821 352.8379,-914.5651 352.8379,-895.147"/>
<polygon fill="#000000" stroke="#000000" points="356.338,-895.0501 352.8379,-885.0502 349.338,-895.0502 356.338,-895.0501"/>
<text text-anchor="middle" x="377.3379" y="-917.3" font-family="Times,serif" font-size="14.00" fill="#000000">nextTrue</text>
</g>
<!-- 17 -->
<g id="node33" class="node">
<title>17</title>
<polygon fill="#a3c1ad" stroke="#a3c1ad" points="1316.8379,-885 1003.4727,-867 1316.8379,-849 1630.2032,-867 1316.8379,-885"/>
<text text-anchor="middle" x="1316.8379" y="-863.3" font-family="Times,serif" font-size="14.00" fill="#000000">Condition: Has an application of any drugs at the moment?</text>
</g>
<!-- 12&#45;&gt;17 -->
<g id="edge33" class="edge">
<title>12&#45;&gt;17</title>
<path fill="none" stroke="#000000" d="M1316.8379,-956.6793C1316.8379,-939.821 1316.8379,-914.5651 1316.8379,-895.147"/>
<polygon fill="#000000" stroke="#000000" points="1320.338,-895.0501 1316.8379,-885.0502 1313.338,-895.0502 1320.338,-895.0501"/>
<text text-anchor="middle" x="1342.8379" y="-917.3" font-family="Times,serif" font-size="14.00" fill="#000000">nextFalse</text>
</g>
<!-- 18 -->
<g id="node34" class="node">
<title>18</title>
<polygon fill="#a3c1ad" stroke="#a3c1ad" points="946.8379,-269 715.9208,-251 946.8379,-233 1177.7551,-251 946.8379,-269"/>
<text text-anchor="middle" x="946.8379" y="-247.3" font-family="Times,serif" font-size="14.00" fill="#000000">Condition: Does patient prefer typical drug</text>
</g>
<!-- 12&#45;&gt;18 -->
<g id="edge34" class="edge">
<title>12&#45;&gt;18</title>
<path fill="none" stroke="#000000" d="M1202.0487,-963.7072C1093.4088,-949.7413 946.8379,-920.9097 946.8379,-867 946.8379,-867 946.8379,-867 946.8379,-338 946.8379,-318.5475 946.8379,-296.6484 946.8379,-279.6877"/>
<polygon fill="#000000" stroke="#000000" points="950.338,-279.3305 946.8379,-269.3306 943.338,-279.3306 950.338,-279.3305"/>
<text text-anchor="middle" x="971.3379" y="-595.3" font-family="Times,serif" font-size="14.00" fill="#000000">nextTrue</text>
</g>
<!-- 25 -->
<g id="node20" class="node">
<title>25</title>
<ellipse fill="none" stroke="#000000" cx="713.8379" cy="-759" rx="186.5669" ry="18"/>
<text text-anchor="middle" x="713.8379" y="-755.3" font-family="Times,serif" font-size="14.00" fill="#000000">Liver enzymes test scheduled every three months</text>
</g>
<!-- 19&#45;&gt;25 -->
<g id="edge18" class="edge">
<title>19&#45;&gt;25</title>
<path fill="none" stroke="#000000" d="M730.4452,-848.6793C727.3233,-831.821 722.6463,-806.5651 719.0504,-787.147"/>
<polygon fill="#000000" stroke="#000000" points="722.443,-786.2456 717.1806,-777.0502 715.5601,-787.5203 722.443,-786.2456"/>
</g>
<!-- 26 -->
<g id="node21" class="node">
<title>26</title>
<ellipse fill="none" stroke="#000000" cx="432.8379" cy="-18" rx="159.7717" ry="18"/>
<text text-anchor="middle" x="432.8379" y="-14.3" font-family="Times,serif" font-size="14.00" fill="#000000">Bloodcount scheduled every three months</text>
</g>
<!-- 20&#45;&gt;26 -->
<g id="edge19" class="edge">
<title>20&#45;&gt;26</title>
<path fill="none" stroke="#000000" d="M355.2757,-796.0037C386.4446,-781.8001 420.8379,-758.0686 420.8379,-722.5 420.8379,-722.5 420.8379,-722.5 420.8379,-91 420.8379,-76.1023 423.3015,-59.7182 425.9961,-46.2531"/>
<polygon fill="#000000" stroke="#000000" points="429.485,-46.6765 428.1641,-36.1644 422.6412,-45.2058 429.485,-46.6765"/>
</g>
<!-- 25&#45;&gt;25 -->
<g id="edge23" class="edge">
<title>25&#45;&gt;25</title>
<path fill="none" stroke="#000000" d="M891.9678,-764.3641C908.1763,-763.249 918.3714,-761.4609 918.3714,-759 918.3714,-757.0966 912.2727,-755.5958 902.0099,-754.4975"/>
<polygon fill="#000000" stroke="#000000" points="902.2304,-751.0036 891.9678,-753.6359 901.632,-757.978 902.2304,-751.0036"/>
</g>
<!-- 26&#45;&gt;26 -->
<g id="edge24" class="edge">
<title>26&#45;&gt;26</title>
<path fill="none" stroke="#000000" d="M584.9776,-23.5708C600.6803,-22.4761 610.7238,-20.6191 610.7238,-18 610.7238,-15.9947 604.8365,-14.4362 595.0295,-13.3245"/>
<polygon fill="#000000" stroke="#000000" points="595.2487,-9.8303 584.9776,-12.4292 594.6276,-16.8027 595.2487,-9.8303"/>
</g>
<!-- 22 -->
<g id="node22" class="node">
<title>22</title>
<ellipse fill="none" stroke="#000000" cx="2108.8379" cy="-759" rx="191.1661" ry="18"/>
<text text-anchor="middle" x="2108.8379" y="-755.3" font-family="Times,serif" font-size="14.00" fill="#000000">Increase or decrease dose of current antipsychotica</text>
</g>
<!-- 28 -->
<g id="node23" class="node">
<title>28</title>
<polygon fill="#a3c1ad" stroke="#a3c1ad" points="2108.8379,-704 1886.4658,-686 2108.8379,-668 2331.2101,-686 2108.8379,-704"/>
<text text-anchor="middle" x="2108.8379" y="-682.3" font-family="Times,serif" font-size="14.00" fill="#000000">Condition: Is dose of application critical?</text>
</g>
<!-- 22&#45;&gt;28 -->
<g id="edge20" class="edge">
<title>22&#45;&gt;28</title>
<path fill="none" stroke="#000000" d="M2108.8379,-740.9551C2108.8379,-732.8828 2108.8379,-723.1764 2108.8379,-714.1817"/>
<polygon fill="#000000" stroke="#000000" points="2112.338,-714.0903 2108.8379,-704.0904 2105.338,-714.0904 2112.338,-714.0903"/>
</g>
<!-- 29 -->
<g id="node25" class="node">
<title>29</title>
<polygon fill="#a3c1ad" stroke="#a3c1ad" points="2315.8379,-617 2059.4482,-599 2315.8379,-581 2572.2277,-599 2315.8379,-617"/>
<text text-anchor="middle" x="2315.8379" y="-595.3" font-family="Times,serif" font-size="14.00" fill="#000000">Condition: Is the current application successful?</text>
</g>
<!-- 28&#45;&gt;29 -->
<g id="edge45" class="edge">
<title>28&#45;&gt;29</title>
<path fill="none" stroke="#000000" d="M2144.8946,-670.8458C2179.4927,-656.3045 2231.8999,-634.2783 2269.5628,-618.449"/>
<polygon fill="#000000" stroke="#000000" points="2270.9379,-621.6677 2278.8006,-614.5664 2268.2256,-615.2145 2270.9379,-621.6677"/>
</g>
<!-- 33 -->
<g id="node28" class="node">
<title>33</title>
<ellipse fill="none" stroke="#000000" cx="1901.8379" cy="-599" rx="139.9756" ry="18"/>
<text text-anchor="middle" x="1901.8379" y="-595.3" font-family="Times,serif" font-size="14.00" fill="#000000">Decrease dose to a non&#45;critical level</text>
</g>
<!-- 28&#45;&gt;33 -->
<g id="edge44" class="edge">
<title>28&#45;&gt;33</title>
<path fill="none" stroke="#000000" d="M2072.7813,-670.8458C2039.4995,-656.8577 1989.7378,-635.9434 1952.4739,-620.2818"/>
<polygon fill="#000000" stroke="#000000" points="1953.379,-616.8657 1942.804,-616.2176 1950.6668,-623.3189 1953.379,-616.8657"/>
<text text-anchor="middle" x="2042.3379" y="-638.8" font-family="Times,serif" font-size="14.00" fill="#000000">nextTrue</text>
</g>
<!-- 23 -->
<g id="node24" class="node">
<title>23</title>
<ellipse fill="none" stroke="#000000" cx="2012.8379" cy="-164" rx="217.1615" ry="18"/>
<text text-anchor="middle" x="2012.8379" y="-160.3" font-family="Times,serif" font-size="14.00" fill="#000000">Recommendation: Apply starting dose of an atypical drug</text>
</g>
<!-- 23&#45;&gt;29 -->
<g id="edge21" class="edge">
<title>23&#45;&gt;29</title>
<path fill="none" stroke="#000000" d="M2200.5501,-173.0835C2438.3613,-185.5435 2820.0547,-209.1224 2840.8379,-233 2876.7288,-274.2346 2870.3007,-309.9523 2840.8379,-356 2761.9567,-479.2842 2663.0135,-411.9164 2541.8379,-494 2522.5767,-507.0475 2523.6096,-517.7396 2503.8379,-530 2466.1355,-553.3793 2419.312,-570.5945 2381.8263,-581.9822"/>
<polygon fill="#000000" stroke="#000000" points="2380.6039,-578.694 2372.0138,-584.8957 2382.5964,-585.4045 2380.6039,-578.694"/>
</g>
<!-- 35 -->
<g id="node29" class="node">
<title>35</title>
<ellipse fill="none" stroke="#000000" cx="2731.8379" cy="-512" rx="181.168" ry="18"/>
<text text-anchor="middle" x="2731.8379" y="-508.3" font-family="Times,serif" font-size="14.00" fill="#000000">Recommend diagnosis: Postacute schizophrenia</text>
</g>
<!-- 29&#45;&gt;35 -->
<g id="edge46" class="edge">
<title>29&#45;&gt;35</title>
<path fill="none" stroke="#000000" d="M2400.014,-586.8778C2440.614,-580.5783 2489.9232,-572.2627 2533.8379,-563 2576.562,-553.9884 2623.9424,-541.8621 2661.6404,-531.6949"/>
<polygon fill="#000000" stroke="#000000" points="2662.7692,-535.0153 2671.5045,-529.0198 2660.9369,-528.2593 2662.7692,-535.0153"/>
<text text-anchor="middle" x="2619.3379" y="-551.8" font-family="Times,serif" font-size="14.00" fill="#000000">nextTrue</text>
</g>
<!-- 34 -->
<g id="node39" class="node">
<title>34</title>
<polygon fill="#a3c1ad" stroke="#a3c1ad" points="2255.8379,-530 2016.8762,-512 2255.8379,-494 2494.7997,-512 2255.8379,-530"/>
<text text-anchor="middle" x="2255.8379" y="-508.3" font-family="Times,serif" font-size="14.00" fill="#000000">Condition: Has antipsychotic to be changed?</text>
</g>
<!-- 29&#45;&gt;34 -->
<g id="edge47" class="edge">
<title>29&#45;&gt;34</title>
<path fill="none" stroke="#000000" d="M2303.9839,-581.8116C2295.273,-569.1808 2283.2926,-551.8092 2273.462,-537.5549"/>
<polygon fill="#000000" stroke="#000000" points="2276.226,-535.3978 2267.6674,-529.1527 2270.4635,-539.3719 2276.226,-535.3978"/>
<text text-anchor="middle" x="2315.8379" y="-551.8" font-family="Times,serif" font-size="14.00" fill="#000000">nextFalse</text>
</g>
<!-- 24 -->
<g id="node26" class="node">
<title>24</title>
<ellipse fill="none" stroke="#000000" cx="1045.8379" cy="-164" rx="131.8766" ry="18"/>
<text text-anchor="middle" x="1045.8379" y="-160.3" font-family="Times,serif" font-size="14.00" fill="#000000">Apply typical drug with start dose</text>
</g>
<!-- 24&#45;&gt;29 -->
<g id="edge22" class="edge">
<title>24&#45;&gt;29</title>
<path fill="none" stroke="#000000" d="M1120.6512,-178.8292C1153.7018,-186.0397 1186.3702,-194.3471 1191.8379,-200 1241.108,-250.938 1175.9583,-304.6872 1224.8379,-356 1352.2372,-489.7411 1848.3353,-528.7357 2029.8379,-563 2084.5846,-573.3351 2145.8027,-581.4895 2197.5102,-587.4052"/>
<polygon fill="#000000" stroke="#000000" points="2197.3904,-590.9139 2207.7201,-588.5585 2198.1762,-583.9581 2197.3904,-590.9139"/>
</g>
<!-- 31 -->
<g id="node27" class="node">
<title>31</title>
<ellipse fill="none" stroke="#000000" cx="1364.8379" cy="-338" rx="130.777" ry="18"/>
<text text-anchor="middle" x="1364.8379" y="-334.3" font-family="Times,serif" font-size="14.00" fill="#000000">Start cognitive behavioral therapy</text>
</g>
<!-- 35&#45;&gt;4 -->
<g id="edge25" class="edge">
<title>35&#45;&gt;4</title>
<path fill="none" stroke="#000000" d="M2812.7548,-495.8907C2887.4038,-481.0292 2998.1735,-458.9767 3076.306,-443.4217"/>
<polygon fill="#000000" stroke="#000000" points="3077.0226,-446.8478 3086.1467,-441.4626 3075.6557,-439.9825 3077.0226,-446.8478"/>
</g>
<!-- 37 -->
<g id="node30" class="node">
<title>37</title>
<ellipse fill="none" stroke="#000000" cx="2255.8379" cy="-425" rx="161.3716" ry="18"/>
<text text-anchor="middle" x="2255.8379" y="-421.3" font-family="Times,serif" font-size="14.00" fill="#000000">Apply an antipsychotic drug in target dose</text>
</g>
<!-- 37&#45;&gt;29 -->
<g id="edge26" class="edge">
<title>37&#45;&gt;29</title>
<path fill="none" stroke="#000000" d="M2144.3065,-438.044C2081.117,-445.9727 2013.6686,-455.5823 2008.8379,-461 1988.4268,-483.8916 1988.6675,-506.0597 2007.8379,-530 2031.5214,-559.5762 2119.4964,-577.3336 2195.3912,-587.4104"/>
<polygon fill="#000000" stroke="#000000" points="2195.1676,-590.9105 2205.5338,-588.7216 2196.0651,-583.9683 2195.1676,-590.9105"/>
</g>
<!-- 38 -->
<g id="node31" class="node">
<title>38</title>
<ellipse fill="none" stroke="#000000" cx="2529.8379" cy="-164" rx="132.6765" ry="18"/>
<text text-anchor="middle" x="2529.8379" y="-160.3" font-family="Times,serif" font-size="14.00" fill="#000000">Recommendation: Apply clozapin</text>
</g>
<!-- 38&#45;&gt;29 -->
<g id="edge28" class="edge">
<title>38&#45;&gt;29</title>
<path fill="none" stroke="#000000" d="M2654.97,-170.0187C2736.6067,-175.2941 2834.9723,-184.5914 2873.8379,-200 2908.6268,-213.7923 2940.8379,-213.5768 2940.8379,-251 2940.8379,-512 2940.8379,-512 2940.8379,-512 2940.8379,-558.1223 2670.3845,-581.2115 2485.2963,-591.6125"/>
<polygon fill="#000000" stroke="#000000" points="2484.9599,-588.1257 2475.169,-592.1738 2485.3474,-595.115 2484.9599,-588.1257"/>
</g>
<!-- 40 -->
<g id="node32" class="node">
<title>40</title>
<ellipse fill="none" stroke="#000000" cx="1557.8379" cy="-91" rx="215.5619" ry="18"/>
<text text-anchor="middle" x="1557.8379" y="-87.3" font-family="Times,serif" font-size="14.00" fill="#000000">Weekly bloodcount first 18 weeks of clozapin application</text>
</g>
<!-- 38&#45;&gt;40 -->
<g id="edge27" class="edge">
<title>38&#45;&gt;40</title>
<path fill="none" stroke="#000000" d="M2413.5575,-155.267C2243.3,-142.4802 1925.0997,-118.5824 1728.3599,-103.8067"/>
<polygon fill="#000000" stroke="#000000" points="1728.4434,-100.3032 1718.2094,-103.0444 1727.9191,-107.2835 1728.4434,-100.3032"/>
</g>
<!-- 40&#45;&gt;26 -->
<g id="edge29" class="edge">
<title>40&#45;&gt;26</title>
<path fill="none" stroke="#000000" d="M1387.2803,-79.9327C1167.8232,-65.6924 790.1127,-41.1832 581.7172,-27.6606"/>
<polygon fill="#000000" stroke="#000000" points="581.8217,-24.1601 571.6161,-27.0052 581.3684,-31.1454 581.8217,-24.1601"/>
</g>
<!-- 40&#45;&gt;40 -->
<g id="edge30" class="edge">
<title>40&#45;&gt;40</title>
<path fill="none" stroke="#000000" d="M1764.5473,-96.1663C1781.2596,-95.0424 1791.6188,-93.3203 1791.6188,-91 1791.6188,-89.1873 1785.2961,-87.7396 1774.5608,-86.6571"/>
<polygon fill="#000000" stroke="#000000" points="1774.8006,-83.1651 1764.5473,-85.8337 1774.2268,-90.1416 1774.8006,-83.1651"/>
</g>
<!-- 17&#45;&gt;22 -->
<g id="edge35" class="edge">
<title>17&#45;&gt;22</title>
<path fill="none" stroke="#000000" d="M1410.0194,-854.2934C1554.2622,-834.624 1831.465,-796.8236 1989.9457,-775.2126"/>
<polygon fill="#000000" stroke="#000000" points="1990.7748,-778.632 2000.2102,-773.8129 1989.829,-771.6962 1990.7748,-778.632"/>
<text text-anchor="middle" x="1855.3379" y="-809.3" font-family="Times,serif" font-size="14.00" fill="#000000">nextTrue</text>
</g>
<!-- 21 -->
<g id="node35" class="node">
<title>21</title>
<polygon fill="#a3c1ad" stroke="#a3c1ad" points="1231.8379,-530 974.6098,-512 1231.8379,-494 1489.0661,-512 1231.8379,-530"/>
<text text-anchor="middle" x="1231.8379" y="-508.3" font-family="Times,serif" font-size="14.00" fill="#000000">Condition: Was the last applied drug satisfying?</text>
</g>
<!-- 17&#45;&gt;21 -->
<g id="edge36" class="edge">
<title>17&#45;&gt;21</title>
<path fill="none" stroke="#000000" d="M1304.8148,-849.5462C1291.7872,-828.8963 1272.8379,-793.0139 1272.8379,-759 1272.8379,-759 1272.8379,-759 1272.8379,-599 1272.8379,-576.8812 1261.8598,-554.3582 1251.2648,-537.7719"/>
<polygon fill="#000000" stroke="#000000" points="1253.9831,-535.5427 1245.4904,-529.2083 1248.1793,-539.4563 1253.9831,-535.5427"/>
<text text-anchor="middle" x="1298.8379" y="-682.3" font-family="Times,serif" font-size="14.00" fill="#000000">nextFalse</text>
</g>
<!-- 18&#45;&gt;23 -->
<g id="edge37" class="edge">
<title>18&#45;&gt;23</title>
<path fill="none" stroke="#000000" d="M1059.6577,-241.7924C1248.4706,-226.3827 1629.2524,-195.3058 1848.0717,-177.4472"/>
<polygon fill="#000000" stroke="#000000" points="1848.3629,-180.9351 1858.045,-176.6332 1847.7934,-173.9583 1848.3629,-180.9351"/>
<text text-anchor="middle" x="1569.8379" y="-203.8" font-family="Times,serif" font-size="14.00" fill="#000000">nextFalse</text>
</g>
<!-- 18&#45;&gt;24 -->
<g id="edge38" class="edge">
<title>18&#45;&gt;24</title>
<path fill="none" stroke="#000000" d="M965.9261,-234.2255C980.6053,-221.3257 1001.11,-203.3064 1017.6734,-188.7507"/>
<polygon fill="#000000" stroke="#000000" points="1020.2439,-191.1512 1025.4451,-181.921 1015.623,-185.8931 1020.2439,-191.1512"/>
<text text-anchor="middle" x="1027.3379" y="-203.8" font-family="Times,serif" font-size="14.00" fill="#000000">nextTrue</text>
</g>
<!-- 21&#45;&gt;18 -->
<g id="edge39" class="edge">
<title>21&#45;&gt;18</title>
<path fill="none" stroke="#000000" d="M1213.5764,-495.2762C1164.5293,-450.3594 1029.7973,-326.9733 972.8226,-274.7965"/>
<polygon fill="#000000" stroke="#000000" points="975.0549,-272.0949 965.3163,-267.9223 970.3273,-277.2572 975.0549,-272.0949"/>
<text text-anchor="middle" x="1122.8379" y="-377.8" font-family="Times,serif" font-size="14.00" fill="#000000">nextFalse</text>
</g>
<!-- 27 -->
<g id="node36" class="node">
<title>27</title>
<polygon fill="#a3c1ad" stroke="#a3c1ad" points="1820.8379,-443 1565.2865,-425 1820.8379,-407 2076.3894,-425 1820.8379,-443"/>
<text text-anchor="middle" x="1820.8379" y="-421.3" font-family="Times,serif" font-size="14.00" fill="#000000">Condition: Had the patient a therapy resistance?</text>
</g>
<!-- 21&#45;&gt;27 -->
<g id="edge40" class="edge">
<title>21&#45;&gt;27</title>
<path fill="none" stroke="#000000" d="M1314.6668,-499.7655C1423.5475,-483.683 1614.2787,-455.5105 1727.9478,-438.7206"/>
<polygon fill="#000000" stroke="#000000" points="1728.6437,-442.1559 1738.0249,-437.2322 1727.6207,-435.231 1728.6437,-442.1559"/>
<text text-anchor="middle" x="1586.3379" y="-464.8" font-family="Times,serif" font-size="14.00" fill="#000000">nextTrue</text>
</g>
<!-- 27&#45;&gt;31 -->
<g id="edge41" class="edge">
<title>27&#45;&gt;31</title>
<path fill="none" stroke="#000000" d="M1751.5814,-411.7866C1671.2136,-396.4532 1538.6054,-371.153 1451.4811,-354.5306"/>
<polygon fill="#000000" stroke="#000000" points="1452.0949,-351.0847 1441.6161,-352.6485 1450.783,-357.9606 1452.0949,-351.0847"/>
<text text-anchor="middle" x="1645.3379" y="-377.8" font-family="Times,serif" font-size="14.00" fill="#000000">nextTrue</text>
</g>
<!-- 30 -->
<g id="node37" class="node">
<title>30</title>
<polygon fill="#a3c1ad" stroke="#a3c1ad" points="1864.8379,-356 1513.6018,-338 1864.8379,-320 2216.0741,-338 1864.8379,-356"/>
<text text-anchor="middle" x="1864.8379" y="-334.3" font-family="Times,serif" font-size="14.00" fill="#000000">Condition: Had patient a typical antipsychotica in medical history?</text>
</g>
<!-- 27&#45;&gt;30 -->
<g id="edge42" class="edge">
<title>27&#45;&gt;30</title>
<path fill="none" stroke="#000000" d="M1829.742,-407.3943C1835.9445,-395.1303 1844.3304,-378.5489 1851.3497,-364.67"/>
<polygon fill="#000000" stroke="#000000" points="1854.5572,-366.0828 1855.9471,-355.5796 1848.3107,-362.9236 1854.5572,-366.0828"/>
<text text-anchor="middle" x="1871.8379" y="-377.8" font-family="Times,serif" font-size="14.00" fill="#000000">nextFalse</text>
</g>
<!-- 32 -->
<g id="node38" class="node">
<title>32</title>
<polygon fill="#a3c1ad" stroke="#a3c1ad" points="2532.8379,-356 2233.8856,-338 2532.8379,-320 2831.7903,-338 2532.8379,-356"/>
<text text-anchor="middle" x="2532.8379" y="-334.3" font-family="Times,serif" font-size="14.00" fill="#000000">Condition: Has a therapy resistance to last applied drug?</text>
</g>
<!-- 27&#45;&gt;32 -->
<g id="edge43" class="edge">
<title>27&#45;&gt;32</title>
<path fill="none" stroke="#000000" d="M1914.2853,-413.5816C2045.6863,-397.5255 2284.541,-368.3397 2423.8571,-351.3165"/>
<polygon fill="#000000" stroke="#000000" points="2424.6244,-354.7488 2434.126,-350.0617 2423.7753,-347.8005 2424.6244,-354.7488"/>
<text text-anchor="middle" x="2244.3379" y="-377.8" font-family="Times,serif" font-size="14.00" fill="#000000">nextTrue</text>
</g>
<!-- 30&#45;&gt;23 -->
<g id="edge48" class="edge">
<title>30&#45;&gt;23</title>
<path fill="none" stroke="#000000" d="M1879.5698,-320.6801C1905.7398,-289.9126 1960.45,-225.5912 1991.0069,-189.6662"/>
<polygon fill="#000000" stroke="#000000" points="1993.6897,-191.9142 1997.5027,-182.0293 1988.3576,-187.3789 1993.6897,-191.9142"/>
<text text-anchor="middle" x="1978.3379" y="-247.3" font-family="Times,serif" font-size="14.00" fill="#000000">nextTrue</text>
</g>
<!-- 30&#45;&gt;18 -->
<g id="edge49" class="edge">
<title>30&#45;&gt;18</title>
<path fill="none" stroke="#000000" d="M1741.509,-326.312C1562.919,-309.3868 1234.7566,-278.2864 1061.284,-261.8462"/>
<polygon fill="#000000" stroke="#000000" points="1061.3893,-258.3406 1051.1037,-260.8814 1060.7288,-265.3094 1061.3893,-258.3406"/>
<text text-anchor="middle" x="1486.8379" y="-290.8" font-family="Times,serif" font-size="14.00" fill="#000000">nextFalse</text>
</g>
<!-- 32&#45;&gt;23 -->
<g id="edge50" class="edge">
<title>32&#45;&gt;23</title>
<path fill="none" stroke="#000000" d="M2411.6777,-327.275C2339.4146,-317.9013 2247.0124,-300.6018 2169.8379,-269 2121.0199,-249.0097 2071.5574,-212.6785 2041.5391,-188.4385"/>
<polygon fill="#000000" stroke="#000000" points="2043.5604,-185.5701 2033.6047,-181.9459 2039.1274,-190.9875 2043.5604,-185.5701"/>
<text text-anchor="middle" x="2194.3379" y="-247.3" font-family="Times,serif" font-size="14.00" fill="#000000">nextTrue</text>
</g>
<!-- 36 -->
<g id="node40" class="node">
<title>36</title>
<polygon fill="#a3c1ad" stroke="#a3c1ad" points="2529.8379,-269 2227.5324,-251 2529.8379,-233 2832.1435,-251 2529.8379,-269"/>
<text text-anchor="middle" x="2529.8379" y="-247.3" font-family="Times,serif" font-size="14.00" fill="#000000">Condition: Had a non&#45;successful application of clozapin?</text>
</g>
<!-- 32&#45;&gt;36 -->
<g id="edge51" class="edge">
<title>32&#45;&gt;36</title>
<path fill="none" stroke="#000000" d="M2532.2163,-319.9735C2531.8101,-308.1918 2531.2711,-292.5607 2530.8089,-279.1581"/>
<polygon fill="#000000" stroke="#000000" points="2534.3014,-278.8768 2530.4588,-269.0034 2527.3055,-279.1181 2534.3014,-278.8768"/>
<text text-anchor="middle" x="2557.8379" y="-290.8" font-family="Times,serif" font-size="14.00" fill="#000000">nextFalse</text>
</g>
<!-- 34&#45;&gt;22 -->
<g id="edge52" class="edge">
<title>34&#45;&gt;22</title>
<path fill="none" stroke="#000000" d="M2409.6923,-518.414C2497.2308,-523.6908 2592.154,-532.8364 2605.8379,-548 2610.3043,-552.9493 2607.2719,-556.4894 2605.8379,-563 2577.0571,-693.6724 2468.0517,-665.7268 2339.8379,-704 2293.2949,-717.8936 2240.6628,-730.6486 2197.4054,-740.3702"/>
<polygon fill="#000000" stroke="#000000" points="2196.4727,-736.9921 2187.4748,-742.5858 2197.9971,-743.8242 2196.4727,-736.9921"/>
<text text-anchor="middle" x="2595.8379" y="-638.8" font-family="Times,serif" font-size="14.00" fill="#000000">nextFalse</text>
</g>
<!-- 34&#45;&gt;37 -->
<g id="edge53" class="edge">
<title>34&#45;&gt;37</title>
<path fill="none" stroke="#000000" d="M2255.8379,-493.9735C2255.8379,-482.1918 2255.8379,-466.5607 2255.8379,-453.1581"/>
<polygon fill="#000000" stroke="#000000" points="2259.338,-453.0033 2255.8379,-443.0034 2252.338,-453.0034 2259.338,-453.0033"/>
<text text-anchor="middle" x="2281.8379" y="-464.8" font-family="Times,serif" font-size="14.00" fill="#000000">nextFalse</text>
</g>
<!-- 34&#45;&gt;27 -->
<g id="edge54" class="edge">
<title>34&#45;&gt;27</title>
<path fill="none" stroke="#000000" d="M2190.2431,-498.881C2111.7853,-483.1895 1980.6548,-456.9634 1897.57,-440.3464"/>
<polygon fill="#000000" stroke="#000000" points="1898.1749,-436.8981 1887.6826,-438.3689 1896.802,-443.7622 1898.1749,-436.8981"/>
<text text-anchor="middle" x="2089.3379" y="-464.8" font-family="Times,serif" font-size="14.00" fill="#000000">nextTrue</text>
</g>
<!-- 36&#45;&gt;38 -->
<g id="edge55" class="edge">
<title>36&#45;&gt;38</title>
<path fill="none" stroke="#ff0000" d="M2529.8379,-232.9735C2529.8379,-221.1918 2529.8379,-205.5607 2529.8379,-192.1581"/>
<polygon fill="#ff0000" stroke="#ff0000" points="2533.338,-192.0033 2529.8379,-182.0034 2526.338,-192.0034 2533.338,-192.0033"/>
<text text-anchor="middle" x="2564.8379" y="-203.8" font-family="Times,serif" font-size="14.00" fill="#000000">definiteFalse</text>
</g>
</g>
</svg>
