digraph g {
	"patient1"[shape=box]
	"patient1" -> "R_Acute_Schizophrenia" [label="hasRecommendedDiagnosis", color=green]
	"patient1" -> "R_Initial_Dyskinesia" [label="hasFutureRecommendedDiagnosis",  color=green]
	"patient1" -> "R_Apply_Anticholinergic" [label="hasFutureRecommendedMeasure", color=green]
	"R_Acute_Schizophrenia" -> "R_Initial_Dyskinesia"
	[label="beforeNextRecommendEvent", color=blue]
	"R_Initial_Dyskinesia" -> "R_Apply_Anticholinergic"
	[label="beforeNextRecommendEvent", color=blue]
	"R_Acute_Schizophrenia" ->  "R_Apply_Anticholinergic"
	[label="beforeRecommendedEvent", color=red]
}
